amapGeocode: 使用R进行高德地图地理编码/逆编码 | 洗衣机用户不会用洗衣机
…
## # A tibble: 2 x 8
##   formatted_address   country province city  district township citycode towncode
##   <chr>               <chr>   <chr>    <chr> <chr>    <chr>    <chr>    <chr>   
## 1 四川省成都市金牛区西安路街道成都中医~ 中国    四川省   成都市~ 金牛区   西安路街道~ 028      5101060~
## 2 四川省成都市青羊区草堂街道四川省医学~ 中国    四川省   成都市~ 青羊区   草堂街道 028      5101050~

行政区获取

与地理编码/逆编码方法基本相同，getAdmin()示例如下：

getAdmin(c("四川省", "兰州市", "济宁市"))

## [[1]]
## # A tibble: 21 x 6
##      lng   lat name   level citycode adcode
##    <dbl> <dbl> <chr>  <chr> <chr>    <chr> 
##  1  107.  31.9 巴中市 city  0827     511900
##  2  104.  30.7 成都市 city  028      510100
##  3  104.  31.1 德阳市 city  0838     510600
##  4  106.  32.4 广元市 city  0839     510800
##  5  106.  30.5 遂宁市 city  0825     510900
##  6  105.  30.1 资阳市 city  0832     512000
##  7  105.  31.5 绵阳市 city  0816     510700
##  8  107.  30.5 广安市 city  0826     511600
##  9  108.  31.2 达州市 city  0818     511700
## 10  106.  30.8 南充市 city  0817     511300
## # ... with 11 more rows
## 
## [[2]]
…
